<?xml version="1.0" encoding="utf-8"?>
<!-- Generator: Adobe Illustrator 23.0.6, SVG Export Plug-In . SVG Version: 6.00 Build 0)  -->
<svg version="1.1" id="Capa_1" xmlns="http://www.w3.org/2000/svg" xmlns:xlink="http://www.w3.org/1999/xlink" x="0px" y="0px"
	 viewBox="0 0 110.9 94.1" style="enable-background:new 0 0 110.9 94.1;" xml:space="preserve">
<style type="text/css">
	.st0{fill:none;stroke:#89A3DC;stroke-width:2;stroke-miterlimit:10;}
	.st1{fill:#89A3DC;}
</style>
<path class="st0" d="M71-70.4c-0.2-6.8-5.8-12.2-12.6-12.1c-3.5,0-6.8,1.4-9.2,3.9c-3.5-3.6-8.8-4.8-13.6-3.1
	c-2.3-1.9-5.6-1.8-7.7,0.3c-2,2.1-1.9,5.5,0.1,7.5c-0.3,1.1-0.5,2.3-0.5,3.5l-0.3,14c0,2.6,2.1,4.8,4.8,4.8c2.6,0,4.8-2.1,4.8-4.8
	l-0.2-11.5c0.1-2.3,2-4,4.3-3.9c2.1,0.1,3.8,1.8,3.9,3.9l-0.4,11.5c0,2.6,2.1,4.8,4.8,4.8c2.6,0,4.8-2.1,4.8-4.8l-0.2-11.5
	c0.1-2.3,2-4,4.3-3.9c2.1,0.1,3.8,1.8,3.9,3.9l-0.2,12c-0.1,2.6,1.9,4.9,4.6,5c2.6,0.1,4.9-1.9,5-4.6c0-0.1,0-0.3,0-0.4L71-70.4z"/>
<path class="st1" d="M66.4-54.3c-1,0-1.8-0.8-1.8-1.8l0.2-12c0.1-3.9-2.9-7.2-6.8-7.3s-7.2,2.9-7.3,6.8c0,0.2,0,0.4,0,0.5L51-56.6
	c0,1-0.8,1.8-1.8,1.8s-1.8-0.8-1.8-1.8l0.3-11.5c0.1-3.9-2.9-7.2-6.8-7.3s-7.2,2.9-7.3,6.8c0,0.2,0,0.4,0,0.5l0.3,11.5
	c0,1-0.8,1.8-1.8,1.8s-1.8-0.8-1.8-1.8l0,0l0.3-14c0.1-5.2,4.4-9.2,9.5-9.1c3.1,0,6,1.5,7.9,4l1.3,1.9l1.2-1.8
	c1.8-2.6,4.8-4.1,8-4.1c5.2-0.1,9.4,4,9.5,9.2l0.2,14.4C68.3-55.1,67.5-54.3,66.4-54.3L66.4-54.3z"/>
<g>
	<path d="M80-81.7h3v1.4c0.5-0.6,1-1,1.6-1.3c0.6-0.3,1.1-0.4,1.6-0.4c0.3,0,0.6,0,0.9,0.1s0.6,0.2,0.8,0.3c0.3,0.2,0.5,0.4,0.8,0.7
		c0.3,0.3,0.5,0.7,0.8,1.2c0.3-0.4,0.6-0.8,1-1.1c0.4-0.3,0.7-0.5,1-0.7c0.3-0.2,0.7-0.3,1-0.4s0.7-0.1,1-0.1c0.7,0,1.2,0.1,1.8,0.3
		c0.5,0.2,1,0.6,1.4,1s0.7,0.9,0.9,1.4s0.3,1.1,0.3,1.8v8.7h-3v-8.5c0-0.4-0.1-0.8-0.2-1c-0.1-0.3-0.2-0.5-0.4-0.6s-0.4-0.3-0.6-0.3
		c-0.2-0.1-0.4-0.1-0.6-0.1c-0.3,0-0.6,0.1-0.9,0.2s-0.6,0.3-0.8,0.6c-0.2,0.3-0.4,0.6-0.6,0.9c-0.1,0.3-0.2,0.7-0.2,1.1v7.8h-3
		v-8.5c0-0.4-0.1-0.8-0.2-1c-0.1-0.2-0.2-0.5-0.4-0.6s-0.3-0.3-0.5-0.3s-0.4-0.1-0.6-0.1c-0.4,0-0.7,0.1-1.1,0.3
		c-0.4,0.2-0.6,0.4-0.9,0.7c-0.3,0.3-0.5,0.4-0.7,0.7c-0.2,0.3-0.2,0.7-0.2,1v7.7h-3C80-68.8,80-81.7,80-81.7z"/>
	<path d="M103-74.4c0.1,0.5,0.2,0.9,0.3,1.3c0.2,0.4,0.4,0.8,0.6,1.1c0.3,0.3,0.6,0.6,0.9,0.8c0.3,0.2,0.7,0.3,1.1,0.3
		c0.7,0,1.3-0.2,1.8-0.6s0.9-1,1.2-1.8h2.8c-0.2,0.8-0.4,1.5-0.8,2.1s-0.8,1.1-1.3,1.5s-1.1,0.7-1.7,1c-0.6,0.3-1.3,0.3-1.9,0.3
		c-0.9,0-1.8-0.2-2.5-0.6s-1.4-0.9-1.9-1.5s-0.9-1.4-1.2-2.2c-0.3-0.8-0.4-1.7-0.4-2.6c0-0.9,0.1-1.7,0.4-2.5
		c0.3-0.8,0.7-1.5,1.2-2.1s1.2-1.1,1.9-1.4s1.6-0.5,2.5-0.5s1.7,0.2,2.4,0.5c0.7,0.3,1.4,0.8,1.9,1.3c0.5,0.6,0.9,1.2,1.2,2
		c0.3,0.8,0.4,1.6,0.4,2.5v1.2L103-74.4L103-74.4z M108.9-76.7c-0.1-0.4-0.2-0.8-0.3-1.1c-0.2-0.3-0.4-0.6-0.6-0.9s-0.6-0.4-0.9-0.6
		c-0.3-0.1-0.7-0.2-1.1-0.2s-0.7,0.1-1.1,0.2c-0.3,0.1-0.6,0.3-0.9,0.6c-0.2,0.2-0.5,0.5-0.6,0.9s-0.3,0.7-0.3,1.1H108.9z"/>
	<path d="M117.7-85.3v3.6h2.4v2.5h-2.4v7c0,0.4,0.1,0.7,0.2,0.9c0.1,0.2,0.4,0.4,0.7,0.4c0.1,0,0.3,0,0.6,0s0.7-0.1,1.2-0.3v2.4
		c-0.5,0.2-1,0.3-1.5,0.4c-0.5,0.1-0.9,0.1-1.2,0.1c-0.4,0-0.8-0.1-1.1-0.2c-0.4-0.2-0.7-0.4-1-0.7c-0.3-0.3-0.5-0.6-0.7-1.1
		c-0.2-0.4-0.2-0.9-0.2-1.4v-7.4h-1.8v-2.5h1.8v-3.6h3V-85.3z"/>
	<path d="M133.5-69.1c-0.2,0.2-0.5,0.3-0.6,0.3c-0.2,0.1-0.4,0.1-0.5,0.2c-0.1,0-0.3,0.1-0.4,0.1c-0.1,0-0.2,0-0.3,0
		c-0.3,0-0.6-0.1-0.8-0.2c-0.2-0.1-0.5-0.3-0.7-0.4c-0.2-0.1-0.4-0.4-0.5-0.6s-0.3-0.5-0.3-0.8c-0.4,0.4-0.7,0.7-1.1,1
		c-0.3,0.3-0.7,0.5-1,0.6s-0.7,0.3-1,0.3s-0.7,0.1-1,0.1c-0.6,0-1.1-0.1-1.6-0.3c-0.5-0.2-0.9-0.4-1.3-0.8c-0.4-0.3-0.7-0.7-0.9-1.2
		c-0.2-0.5-0.3-1-0.3-1.6c0-0.5,0.1-0.9,0.3-1.3c0.2-0.4,0.5-0.7,0.9-1c0.4-0.3,0.8-0.5,1.3-0.7c0.5-0.2,0.9-0.4,1.4-0.5
		c0.5-0.2,1-0.3,1.4-0.5c0.4-0.2,0.9-0.3,1.3-0.5c0.4-0.2,0.7-0.3,0.9-0.5c0.2-0.2,0.3-0.4,0.3-0.7c0-0.3-0.1-0.5-0.2-0.7
		c-0.1-0.2-0.3-0.3-0.5-0.4c-0.2-0.1-0.5-0.2-0.7-0.2s-0.5-0.1-0.8-0.1s-0.5,0-0.8,0.1s-0.5,0.2-0.7,0.3c-0.2,0.2-0.4,0.3-0.5,0.6
		c-0.1,0.2-0.2,0.5-0.3,0.9h-3c0.1-0.7,0.2-1.4,0.6-1.9s0.7-1,1.2-1.4s1-0.6,1.7-0.8c0.6-0.2,1.2-0.3,1.9-0.3c0.7,0,1.4,0.1,2,0.2
		c0.6,0.2,1.2,0.4,1.7,0.7c0.5,0.3,0.9,0.8,1.2,1.3s0.4,1.1,0.4,1.8v6.3c0,0.2,0.1,0.3,0.2,0.5c0.1,0.1,0.3,0.2,0.5,0.2
		c0,0,0.1,0,0.3,0s0.4-0.1,0.6-0.2v2.1H133.5z M129-75c-0.2,0.1-0.4,0.2-0.8,0.3c-0.3,0.1-0.7,0.2-1,0.3c-0.4,0.1-0.7,0.2-1.1,0.3
		s-0.7,0.2-1,0.4c-0.3,0.1-0.5,0.3-0.7,0.5c-0.2,0.2-0.3,0.4-0.3,0.7c0,0.3,0,0.5,0.1,0.7c0.1,0.2,0.2,0.3,0.3,0.5
		c0.1,0.2,0.3,0.2,0.5,0.3s0.4,0.1,0.5,0.1c0.6,0,1.2-0.2,1.8-0.6c0.6-0.4,1.1-1,1.6-1.8L129-75L129-75z"/>
</g>
<g>
	<path d="M88.6-60l-2.3,8.3h-2.9l-3.7-12.9h3l2.1,8l2.2-8h3l2.1,8l2.2-8h3l-3.7,12.9h-2.9L88.6-60z"/>
	<path d="M110.5-52c-0.2,0.2-0.5,0.3-0.6,0.3c-0.2,0.1-0.4,0.1-0.5,0.2c-0.1,0-0.3,0.1-0.4,0.1s-0.2,0-0.3,0c-0.3,0-0.6-0.1-0.8-0.2
		c-0.2-0.1-0.5-0.3-0.7-0.4c-0.2-0.2-0.4-0.4-0.5-0.6s-0.3-0.5-0.3-0.8c-0.4,0.4-0.7,0.7-1.1,1c-0.3,0.3-0.7,0.5-1,0.6
		s-0.7,0.3-1,0.3c-0.3,0.1-0.7,0.1-1,0.1c-0.6,0-1.1-0.1-1.6-0.3c-0.5-0.2-0.9-0.4-1.3-0.8c-0.4-0.3-0.7-0.7-0.9-1.2
		c-0.2-0.5-0.3-1-0.3-1.6c0-0.5,0.1-0.9,0.3-1.3c0.2-0.4,0.5-0.7,0.9-1s0.8-0.5,1.3-0.7s0.9-0.4,1.4-0.5c0.5-0.2,1-0.3,1.4-0.5
		c0.5-0.1,0.9-0.3,1.3-0.5s0.7-0.3,0.9-0.5c0.2-0.2,0.3-0.4,0.3-0.7c0-0.3-0.1-0.5-0.2-0.7s-0.3-0.3-0.5-0.4s-0.5-0.2-0.7-0.2
		c-0.3-0.1-0.5-0.1-0.8-0.1s-0.5,0-0.8,0.1s-0.5,0.2-0.7,0.3c-0.2,0.2-0.4,0.3-0.5,0.6s-0.2,0.5-0.3,0.9h-3c0.1-0.7,0.2-1.4,0.6-1.9
		c0.3-0.6,0.7-1,1.2-1.4c0.5-0.4,1-0.6,1.7-0.8c0.6-0.2,1.2-0.3,1.9-0.3c0.7,0,1.4,0.1,2,0.2c0.6,0.2,1.2,0.4,1.7,0.7
		c0.5,0.3,0.9,0.8,1.2,1.3c0.3,0.5,0.4,1.1,0.4,1.8v6.4c0,0.2,0.1,0.3,0.2,0.5s0.3,0.2,0.5,0.2c0,0,0.1,0,0.3,0
		c0.2,0,0.4-0.1,0.6-0.2v2H110.5z M105.9-57.9c-0.2,0.1-0.4,0.2-0.8,0.3c-0.3,0.1-0.7,0.2-1,0.3c-0.4,0.1-0.7,0.2-1.1,0.3
		c-0.4,0.1-0.7,0.2-1,0.4c-0.3,0.1-0.5,0.3-0.7,0.5s-0.3,0.4-0.3,0.7c0,0.3,0,0.5,0.1,0.7s0.2,0.3,0.3,0.5c0.1,0.1,0.3,0.2,0.5,0.3
		c0.2,0.1,0.4,0.1,0.5,0.1c0.6,0,1.2-0.2,1.8-0.6c0.6-0.4,1.1-1,1.6-1.8L105.9-57.9L105.9-57.9z"/>
	<path d="M113.8-56.3c0,0.4,0.1,0.8,0.2,1.1c0.1,0.3,0.3,0.6,0.5,0.7s0.5,0.3,0.7,0.4c0.3,0.1,0.6,0.1,0.9,0.1s0.6,0,0.8-0.1
		c0.3,0,0.5-0.1,0.7-0.2s0.4-0.3,0.5-0.4c0.1-0.2,0.2-0.4,0.2-0.7c0-0.2-0.1-0.4-0.2-0.6s-0.4-0.3-0.6-0.5c-0.2-0.1-0.5-0.3-0.9-0.4
		c-0.3-0.1-0.7-0.2-1-0.4c-0.5-0.2-1-0.4-1.6-0.6s-1-0.5-1.4-0.8s-0.8-0.7-1.1-1.1c-0.3-0.4-0.4-0.9-0.4-1.6s0.1-1.1,0.4-1.6
		c0.2-0.5,0.6-0.8,1-1.1c0.4-0.3,0.9-0.5,1.5-0.7c0.6-0.1,1.2-0.2,1.9-0.2c0.7,0,1.4,0.1,2,0.3c0.6,0.2,1.1,0.4,1.6,0.8
		c0.4,0.3,0.8,0.8,1,1.3s0.4,1.2,0.4,1.9h-3c0-0.3-0.1-0.6-0.2-0.8c-0.1-0.2-0.3-0.4-0.5-0.5s-0.4-0.2-0.6-0.3
		c-0.2-0.1-0.5-0.1-0.7-0.1c-0.6,0-1,0.1-1.3,0.3c-0.3,0.2-0.5,0.5-0.5,0.8c0,0.2,0.1,0.4,0.2,0.6c0.2,0.2,0.4,0.3,0.6,0.5
		c0.2,0.1,0.5,0.3,0.9,0.4c0.3,0.1,0.7,0.2,1,0.4c0.5,0.2,1,0.4,1.6,0.6c0.5,0.2,1,0.5,1.5,0.8c0.4,0.3,0.8,0.6,1.1,1
		c0.3,0.4,0.4,0.9,0.4,1.4c0,0.7-0.1,1.4-0.4,1.9s-0.7,0.9-1.2,1.3c-0.5,0.3-1.1,0.6-1.7,0.7c-0.7,0.2-1.3,0.2-2.1,0.2
		c-0.7,0-1.3-0.1-2-0.3c-0.6-0.2-1.2-0.5-1.6-0.9c-0.5-0.4-0.8-0.9-1.1-1.5s-0.4-1.3-0.5-2.1C110.8-56.3,113.8-56.3,113.8-56.3z"/>
	<path d="M126.2-69.4v6.2c0.9-1.1,2.1-1.7,3.5-1.7c0.7,0,1.3,0.1,1.8,0.3c0.5,0.2,1,0.5,1.4,0.9c0.4,0.4,0.7,0.8,0.9,1.3
		s0.3,1,0.3,1.6v9.1h-3v-8.4c0-0.4-0.1-0.8-0.2-1c-0.1-0.3-0.3-0.5-0.4-0.7c-0.2-0.2-0.4-0.3-0.6-0.4c-0.2-0.1-0.5-0.1-0.7-0.1
		c-0.3,0-0.7,0.1-1,0.2s-0.7,0.4-0.9,0.6c-0.3,0.3-0.5,0.6-0.7,0.9c-0.2,0.4-0.3,0.7-0.3,1.1v7.7h-3v-17.6H126.2z"/>
</g>
<path class="st0" d="M85.2,44.3c-0.3-9-7.7-16.2-16.8-16.1c-4.7,0-9,1.9-12.2,5.2c-4.7-4.8-11.7-6.4-18.1-4.1
	c-3.1-2.5-7.4-2.4-10.2,0.4c-2.7,2.8-2.5,7.3,0.1,10c-0.4,1.5-0.7,3.1-0.7,4.7L27,62.9c0,3.5,2.8,6.4,6.4,6.4c3.5,0,6.4-2.8,6.4-6.4
	l-0.3-15.3c0.1-3.1,2.7-5.3,5.7-5.2c2.8,0.1,5.1,2.4,5.2,5.2l-0.5,15.3c0,3.5,2.8,6.4,6.4,6.4c3.5,0,6.4-2.8,6.4-6.4l-0.3-15.3
	c0.1-3.1,2.7-5.3,5.7-5.2c2.8,0.1,5.1,2.4,5.2,5.2l-0.3,16c-0.1,3.5,2.5,6.5,6.1,6.6c3.5,0.1,6.5-2.5,6.6-6.1c0-0.1,0-0.4,0-0.5
	L85.2,44.3z"/>
<path class="st1" d="M79.1,65.7c-1.3,0-2.4-1.1-2.4-2.4l0.3-16c0.1-5.2-3.9-9.6-9-9.7c-5.2-0.1-9.6,3.9-9.7,9c0,0.3,0,0.5,0,0.7
	l0.4,15.3c0,1.3-1.1,2.4-2.4,2.4c-1.3,0-2.4-1.1-2.4-2.4l0.4-15.3c0.1-5.2-3.9-9.6-9-9.7c-5.2-0.1-9.6,3.9-9.7,9c0,0.3,0,0.5,0,0.7
	l0.4,15.3c0,1.3-1.1,2.4-2.4,2.4c-1.3,0-2.4-1.1-2.4-2.4l0,0L31.5,44c0.1-6.9,5.8-12.2,12.6-12.1c4.1,0,8,2,10.5,5.3l1.7,2.5
	l1.6-2.4c2.4-3.5,6.4-5.5,10.6-5.5c6.9-0.1,12.5,5.3,12.6,12.2l0.3,19.1C81.6,64.7,80.6,65.7,79.1,65.7L79.1,65.7z"/>
</svg>
